{"data":[{"id":395,"createdAt":"2026-01-30T07:10:54.139Z","updatedAt":"2026-02-10T02:14:19.862Z","name":"캔디소다 밀크쉐이크_2","summary":"밀크쉐이크 신규 상품","basePrice":3500,"imageUrl":"https://storage.googleapis.com/nada-coffee.firebasestorage.app/products/1769757052727-121201300.jpg","isDisplay":true,"catId":15,"category":{"id":15,"name":"밀크쉐이크"},"options":[{"id":235,"createdAt":"2026-02-10T02:14:19.862Z","updatedAt":"2026-02-10T02:14:19.862Z","name":"온도","value":"Hot","addPrice":500,"stockQty":200,"prodId":395}]},{"id":394,"createdAt":"2026-01-30T07:10:52.658Z","updatedAt":"2026-02-06T08:03:09.833Z","name":"인절미컵빙","summary":"밀크쉐이크 신규 상품","basePrice":4900,"imageUrl":"https://storage.googleapis.com/nada-coffee.firebasestorage.app/products/1769757051726-792684381.jpg","isDisplay":true,"catId":15,"category":{"id":15,"name":"밀크쉐이크"},"options":[{"id":228,"createdAt":"2026-02-06T08:03:09.833Z","updatedAt":"2026-02-06T08:03:09.833Z","name":"온도","value":"Hot","addPrice":500,"stockQty":4,"prodId":394}]},{"id":393,"createdAt":"2026-01-30T07:10:51.658Z","updatedAt":"2026-02-10T07:18:57.434Z","name":"인절미컵빙_4","summary":"밀크쉐이크 신규 상품","basePrice":1500,"imageUrl":"https://storage.googleapis.com/nada-coffee.firebasestorage.app/products/1769757050334-894587874.jpg","isDisplay":true,"catId":15,"category":{"id":15,"name":"밀크쉐이크"},"options":[{"id":237,"createdAt":"2026-02-10T07:18:57.434Z","updatedAt":"2026-02-10T07:21:44.043Z","name":"온도","value":"Hot","addPrice":500,"stockQty":0,"prodId":393}]},{"id":392,"createdAt":"2026-01-30T07:10:50.275Z","updatedAt":"2026-02-06T08:19:11.274Z","name":"인절미컵빙_3","summary":"밀크쉐이크 신규 상품","basePrice":5700,"imageUrl":"https://storage.googleapis.com/nada-coffee.firebasestorage.app/products/1769757049318-651749755.jpg","isDisplay":true,"catId":15,"category":{"id":15,"name":"밀크쉐이크"},"options":[{"id":230,"createdAt":"2026-02-06T08:19:11.274Z","updatedAt":"2026-02-10T08:38:25.841Z","name":"온도","value":"Hot","addPrice":500,"stockQty":5,"prodId":392}]},{"id":391,"createdAt":"2026-01-30T07:10:49.116Z","updatedAt":"2026-02-06T08:19:41.357Z","name":"인절미컵빙_2","summary":"밀크쉐이크 신규 상품","basePrice":4000,"imageUrl":"https://storage.googleapis.com/nada-coffee.firebasestorage.app/products/1769757048028-264711414.jpg","isDisplay":true,"catId":15,"category":{"id":15,"name":"밀크쉐이크"},"options":[{"id":231,"createdAt":"2026-02-06T08:19:41.357Z","updatedAt":"2026-02-06T08:19:41.357Z","name":"온도","value":"Hot","addPrice":500,"stockQty":6,"prodId":391}]}],"pagination":{"total":224,"totalPages":45,"currentPage":1,"limit":5}}